newCases,popsize,Confirmed_incl_deaths,dead,testCasesTotal,totalCases,recoveredCases
,51250000,,,,,
,51250000,,,,,
,51250000,,,,,
,51250000,,,,,
,51250000,,,,,
,51250000,,,,,
,51250000,,,,,
,51250000,,,,,
,51250000,,,,,
,51250000,,,,,
,51250000,,,,,
,51250000,,,,,
,51250000,,,,,
,51250000,,,,,
,51250000,,,,,
,51250000,,,,,
,51250000,,,,,
,51250000,,,,,
,51250000,,,,,
,51250000,,,,,
,51250000,,,,,
,51250000,,,,,
,51250000,,,,,
,51250000,,,,,
,51250000,,,,,
,51250000,,,,,
,51250000,,,,,
,51250000,,,,,
,51250000,,,,,
,51250000,,,,,
,51250000,,,,,
,51250000,,,,,
,51250000,,,,,
,51250000,,,,,
,51250000,,,,,
,51250000,,,,,
,51250000,,,,,
,51250000,,,,,
,51250000,,,,,
,51250000,,,,,
,51250000,,,,,
,51250000,,,,,
,51250000,,,,0.0,
,51250000,,,,0.0,
,51250000,,,,0.0,
,51250000,,,,0.0,
,51250000,,,,0.0,
,51250000,,,,0.0,
,51250000,,,,0.0,
,51250000,,,,0.0,
,51250000,,,,0.0,
,51250000,,,,0.0,
,51250000,,,,0.0,
,51250000,,,,0.0,
,51250000,,,,0.0,
,51250000,,,,0.0,
,51250000,,,,0.0,
1.0,51250000,1.0,0.0,,1.0,
0.0,51250000,1.0,0.0,,1.0,
0.0,51250000,1.0,0.0,,1.0,0
0.0,51250000,1.0,0.0,21.0,1.0,0
1.0,51250000,2.0,0.0,,2.0,0
0.0,51250000,2.0,0.0,,2.0,0
1.0,51250000,3.0,0.0,,3.0,0
1.0,51250000,4.0,0.0,,4.0,0
0.0,51250000,4.0,0.0,116.0,4.0,0
0.0,51250000,4.0,0.0,187.0,4.0,0
3.0,51250000,7.0,0.0,244.0,7.0,0
4.0,51250000,11.0,0.0,,11.0,0
1.0,51250000,12.0,0.0,371.0,12.0,0
3.0,51250000,15.0,0.0,429.0,15.0,0
0.0,51250000,15.0,0.0,490.0,15.0,0
1.0,51250000,16.0,0.0,607.0,16.0,0
5.0,51250000,19.0,0.0,714.0,21.0,0
3.0,51250000,23.0,0.0,885.0,24.0,0
0.0,51250000,24.0,0.0,1352.0,24.0,1
0.0,51250000,24.0,0.0,2097.0,24.0,1
3.0,51250000,25.0,0.0,2598.0,27.0,3
1.0,51250000,27.0,0.0,3110.0,28.0,3
0.0,51250000,28.0,0.0,4325.0,28.0,3
0.0,51250000,28.0,0.0,5624.0,28.0,7
0.0,51250000,28.0,0.0,6511.0,28.0,7
0.0,51250000,28.0,0.0,7242.0,28.0,7
0.0,51250000,28.0,0.0,7734.0,28.0,9
2.0,51250000,29.0,0.0,8161.0,30.0,9
0.0,51250000,30.0,0.0,8718.0,30.0,10
2.0,51250000,31.0,0.0,9772.0,32.0,12
34.0,51250000,51.0,0.0,11173.0,66.0,12
16.0,51250000,104.0,1.0,13202.0,82.0,16
74.0,51250000,204.0,1.0,16400.0,156.0,16
190.0,51250000,433.0,2.0,21586.0,346.0,16
210.0,51250000,602.0,5.0,26179.0,556.0,18
207.0,51250000,833.0,7.0,32756.0,763.0,18
130.0,51250000,977.0,10.0,40304.0,893.0,22
253.0,51250000,1261.0,12.0,53553.0,1146.0,22
449.0,51250000,1766.0,13.0,66652.0,1595.0,22
427.0,51250000,2337.0,13.0,81167.0,2022.0,22
909.0,51250000,3150.0,17.0,94055.0,2931.0,27
595.0,51250000,3736.0,18.0,98921.0,3526.0,30
686.0,51250000,4212.0,22.0,109591.0,4212.0,30
600.0,51250000,4812.0,28.0,125851.0,4812.0,30
516.0,51250000,5328.0,32.0,136707.0,5328.0,41
438.0,51250000,5766.0,35.0,146541.0,5766.0,41
518.0,51250000,6284.0,42.0,164740.0,6284.0,135
483.0,51250000,6767.0,44.0,178189.0,6767.0,135
367.0,51250000,7134.0,50.0,188518.0,7134.0,118
248.0,51250000,7382.0,51.0,196618.0,7382.0,118
131.0,51250000,7513.0,54.0,210144.0,7513.0,247
242.0,51250000,7755.0,60.0,222395.0,7755.0,288
114.0,51250000,7869.0,66.0,234998.0,7869.0,333
110.0,51250000,7979.0,67.0,248647.0,7979.0,510
107.0,51250000,8086.0,72.0,261335.0,8086.0,510
76.0,51250000,8162.0,75.0,268212.0,8162.0,510
74.0,51250000,8236.0,75.0,274504.0,8236.0,1137
84.0,51250000,8320.0,81.0,286716.0,8320.0,1407
93.0,51250000,8413.0,84.0,295647.0,8413.0,1540
152.0,51250000,8565.0,91.0,307024.0,8565.0,1540
87.0,51250000,8652.0,94.0,316664.0,8652.0,1540
,51250000,,,,,
,51250000,,,,,
